{
  "results": [
    {
      "command": "Store",
      "mean": 0.20183592249999996,
      "stddev": 0.0008593558742499216,
      "median": 0.20182998800000002,
      "user": 0.1825562771428571,
      "system": 0.019035582857142856,
      "min": 0.2006842535,
      "max": 0.2039059235,
      "times": [
        0.2022939665,
        0.2012388485,
        0.2025161285,
        0.2007053145,
        0.2020217785,
        0.2017414445,
        0.2017927315,
        0.2014884835,
        0.2006842535,
        0.2025443625,
        0.2008524735,
        0.2039059235,
        0.2020499615,
        0.20186724450000001
      ],
      "exit_codes": [
        0,
        0,
        0,
        0,
        0,
        0,
        0,
        0,
        0,
        0,
        0,
        0,
        0,
        0
      ],
      "parameters": {
        "fuzz": "0",
        "impl": "Store"
      }
    },
    {
      "command": "Vector",
      "mean": 0.11255011523076924,
      "stddev": 0.00008514150450188489,
      "median": 0.112525598,
      "user": 0.11157334307692304,
      "system": 0.0009389046153846154,
      "min": 0.11245440250000001,
      "max": 0.11282452650000001,
      "times": [
        0.1125430515,
        0.11249043050000002,
        0.11251335450000001,
        0.11245440250000001,
        0.1125109605,
        0.1127263705,
        0.11271064050000001,
        0.1125388335,
        0.11282452650000001,
        0.11262667950000001,
        0.1125246465,
        0.1124808525,
        0.11255990350000002,
        0.11252654950000002,
        0.11253071750000002,
        0.11249828550000002,
        0.11250794350000001,
        0.1125813335,
        0.11249246450000001,
        0.11254335150000001,
        0.11248469950000001,
        0.11251875450000001,
        0.11252806250000001,
        0.11250783450000001,
        0.11249234450000001,
        0.1125860025
      ],
      "exit_codes": [
        0,
        0,
        0,
        0,
        0,
        0,
        0,
        0,
        0,
        0,
        0,
        0,
        0,
        0,
        0,
        0,
        0,
        0,
        0,
        0,
        0,
        0,
        0,
        0,
        0,
        0
      ],
      "parameters": {
        "fuzz": "0",
        "impl": "Vector"
      }
    },
    {
      "command": "Map",
      "mean": 1.6793309497000002,
      "stddev": 0.006821889305807557,
      "median": 1.6821591935,
      "user": 1.66661602,
      "system": 0.01197524,
      "min": 1.6641000074999999,
      "max": 1.6866191055,
      "times": [
        1.6764112225,
        1.6835114045000001,
        1.6792142295,
        1.6819776685,
        1.6825010165,
        1.6641000074999999,
        1.6866191055,
        1.6846242415000001,
        1.6823407185,
        1.6720098825
      ],
      "exit_codes": [
        0,
        0,
        0,
        0,
        0,
        0,
        0,
        0,
        0,
        0
      ],
      "parameters": {
        "fuzz": "0",
        "impl": "Map"
      }
    },
    {
      "command": "Store",
      "mean": 0.1956224107666667,
      "stddev": 0.0005300052543839865,
      "median": 0.1955639255,
      "user": 0.17206972,
      "system": 0.023322406666666667,
      "min": 0.19438642550000002,
      "max": 0.1964010995,
      "times": [
        0.19438642550000002,
        0.1962647995,
        0.19532172550000002,
        0.1964010995,
        0.1959861595,
        0.1949691745,
        0.1956823315,
        0.1955247315,
        0.1961760605,
        0.1958282995,
        0.1954929005,
        0.1952442685,
        0.1955639255,
        0.1954469535,
        0.1960473065
      ],
      "exit_codes": [
        0,
        0,
        0,
        0,
        0,
        0,
        0,
        0,
        0,
        0,
        0,
        0,
        0,
        0,
        0
      ],
      "parameters": {
        "fuzz": "1",
        "impl": "Store"
      }
    },
    {
      "command": "Vector",
      "mean": 0.11212358426923077,
      "stddev": 0.00002681632159011809,
      "median": 0.11211994400000001,
      "user": 0.11144807384615385,
      "system": 0.0006405676923076922,
      "min": 0.11207079450000001,
      "max": 0.11218202750000002,
      "times": [
        0.1121385445,
        0.11207079450000001,
        0.1121161915,
        0.11211080150000001,
        0.11211746350000001,
        0.11215367350000001,
        0.11213451650000002,
        0.1121455065,
        0.11212474750000001,
        0.11212949750000001,
        0.11208616550000002,
        0.1120940395,
        0.1121494855,
        0.11211884650000001,
        0.11215068750000001,
        0.11214353450000002,
        0.11218202750000002,
        0.11216191850000001,
        0.11209288850000002,
        0.11214244150000001,
        0.11209336750000001,
        0.1121182455,
        0.11211909750000001,
        0.11212079050000001,
        0.1121177445,
        0.1120801735
      ],
      "exit_codes": [
        0,
        0,
        0,
        0,
        0,
        0,
        0,
        0,
        0,
        0,
        0,
        0,
        0,
        0,
        0,
        0,
        0,
        0,
        0,
        0,
        0,
        0,
        0,
        0,
        0,
        0
      ],
      "parameters": {
        "fuzz": "1",
        "impl": "Vector"
      }
    },
    {
      "command": "Map",
      "mean": 1.6574941460000001,
      "stddev": 0.005408264273618458,
      "median": 1.6578670130000002,
      "user": 1.6406951199999997,
      "system": 0.015984046,
      "min": 1.6479271975,
      "max": 1.6632816055000001,
      "times": [
        1.6479271975,
        1.6542930915,
        1.6632816055000001,
        1.6614409345,
        1.6530410625,
        1.6623044305,
        1.6618098405,
        1.6539698245,
        1.6627149964999999,
        1.6541584765
      ],
      "exit_codes": [
        0,
        0,
        0,
        0,
        0,
        0,
        0,
        0,
        0,
        0
      ],
      "parameters": {
        "fuzz": "1",
        "impl": "Map"
      }
    },
    {
      "command": "Store",
      "mean": 0.20227638821428573,
      "stddev": 0.000646057500591611,
      "median": 0.20221712949999998,
      "user": 0.18263356285714286,
      "system": 0.01940086857142857,
      "min": 0.2010162945,
      "max": 0.2033747015,
      "times": [
        0.20238290550000002,
        0.2021180015,
        0.2033747015,
        0.2019138635,
        0.2028251365,
        0.20186465950000002,
        0.2024834065,
        0.2026426495,
        0.2016989035,
        0.2017456225,
        0.2022039645,
        0.2010162945,
        0.2022302945,
        0.2033690315
      ],
      "exit_codes": [
        0,
        0,
        0,
        0,
        0,
        0,
        0,
        0,
        0,
        0,
        0,
        0,
        0,
        0
      ],
      "parameters": {
        "fuzz": "2",
        "impl": "Store"
      }
    },
    {
      "command": "Vector",
      "mean": 0.11254383234615384,
      "stddev": 0.00005565816686862332,
      "median": 0.11253819250000002,
      "user": 0.11112934307692307,
      "system": 0.0013769815384615384,
      "min": 0.1124567525,
      "max": 0.11269039650000001,
      "times": [
        0.11250654750000001,
        0.11252889950000002,
        0.11253966950000001,
        0.11247662050000001,
        0.1125029505,
        0.11248825250000001,
        0.11249725950000002,
        0.1125614525,
        0.11248359250000001,
        0.1125568425,
        0.1125043435,
        0.1124567525,
        0.11252236750000001,
        0.11269039650000001,
        0.1125584755,
        0.11259856250000001,
        0.11258526650000002,
        0.11252613450000001,
        0.11253817750000002,
        0.1125534665,
        0.11256305450000001,
        0.11253820750000001,
        0.11268300350000002,
        0.1125256735,
        0.11254914850000002,
        0.11260452350000001
      ],
      "exit_codes": [
        0,
        0,
        0,
        0,
        0,
        0,
        0,
        0,
        0,
        0,
        0,
        0,
        0,
        0,
        0,
        0,
        0,
        0,
        0,
        0,
        0,
        0,
        0,
        0,
        0,
        0
      ],
      "parameters": {
        "fuzz": "2",
        "impl": "Vector"
      }
    },
    {
      "command": "Map",
      "mean": 1.7252559651,
      "stddev": 0.005410264715612845,
      "median": 1.7251211055,
      "user": 1.71124032,
      "system": 0.013247640000000001,
      "min": 1.7183050565,
      "max": 1.7367683645,
      "times": [
        1.7210447965,
        1.7252242305,
        1.7183050565,
        1.7264765265000002,
        1.7281119695,
        1.7185490255,
        1.7283904724999999,
        1.7367683645,
        1.7246712284999999,
        1.7250179804999999
      ],
      "exit_codes": [
        0,
        0,
        0,
        0,
        0,
        0,
        0,
        0,
        0,
        0
      ],
      "parameters": {
        "fuzz": "2",
        "impl": "Map"
      }
    },
    {
      "command": "Store",
      "mean": 0.19704464803333333,
      "stddev": 0.0006220959577903751,
      "median": 0.1968247835,
      "user": 0.1759382533333333,
      "system": 0.020856273333333335,
      "min": 0.1961460525,
      "max": 0.1982273835,
      "times": [
        0.1964844165,
        0.1967734675,
        0.1979045785,
        0.1969458945,
        0.1967655215,
        0.1977873155,
        0.1966641495,
        0.1968247835,
        0.1970871145,
        0.1961460525,
        0.1972496925,
        0.1964378885,
        0.1982273835,
        0.1978184555,
        0.1965530065
      ],
      "exit_codes": [
        0,
        0,
        0,
        0,
        0,
        0,
        0,
        0,
        0,
        0,
        0,
        0,
        0,
        0,
        0
      ],
      "parameters": {
        "fuzz": "3",
        "impl": "Store"
      }
    },
    {
      "command": "Vector",
      "mean": 0.11224674357692312,
      "stddev": 0.00036606542280569855,
      "median": 0.11214999550000002,
      "user": 0.1101904969230769,
      "system": 0.0020163953846153845,
      "min": 0.11210188950000001,
      "max": 0.11398342050000002,
      "times": [
        0.1121600595,
        0.11214973950000001,
        0.11211619750000001,
        0.11226893750000001,
        0.1121570845,
        0.11214746550000002,
        0.1121076705,
        0.1121502515,
        0.11211894150000001,
        0.11218301450000001,
        0.11246219450000002,
        0.11218789350000001,
        0.11398342050000002,
        0.11218277350000001,
        0.1121282395,
        0.11219659950000001,
        0.1121190625,
        0.11243790850000002,
        0.1122736165,
        0.1122019805,
        0.11210858250000001,
        0.1121232305,
        0.11210188950000001,
        0.11210868250000001,
        0.11212136550000001,
        0.11211853150000001
      ],
      "exit_codes": [
        0,
        0,
        0,
        0,
        0,
        0,
        0,
        0,
        0,
        0,
        0,
        0,
        0,
        0,
        0,
        0,
        0,
        0,
        0,
        0,
        0,
        0,
        0,
        0,
        0,
        0
      ],
      "parameters": {
        "fuzz": "3",
        "impl": "Vector"
      }
    },
    {
      "command": "Map",
      "mean": 1.7979138649,
      "stddev": 0.016804892384348208,
      "median": 1.8021716595,
      "user": 1.7846396199999996,
      "system": 0.01250724,
      "min": 1.7769836155,
      "max": 1.8208766275,
      "times": [
        1.8208766275,
        1.7820886255,
        1.8023456705,
        1.7769836155,
        1.8108984975,
        1.7799192035,
        1.7789981715,
        1.8099752155,
        1.8150553735000001,
        1.8019976485
      ],
      "exit_codes": [
        0,
        0,
        0,
        0,
        0,
        0,
        0,
        0,
        0,
        0
      ],
      "parameters": {
        "fuzz": "3",
        "impl": "Map"
      }
    },
    {
      "command": "Store",
      "mean": 0.20159852664285713,
      "stddev": 0.0009317716981716431,
      "median": 0.2014234185,
      "user": 0.18233320571428574,
      "system": 0.019019225714285715,
      "min": 0.20056235050000001,
      "max": 0.2033929765,
      "times": [
        0.2030621865,
        0.20213717550000002,
        0.2006498165,
        0.2013086495,
        0.20056235050000001,
        0.20239350450000002,
        0.2005770885,
        0.2014072075,
        0.2014856465,
        0.2023394415,
        0.2014396295,
        0.2009528335,
        0.2006708665,
        0.2033929765
      ],
      "exit_codes": [
        0,
        0,
        0,
        0,
        0,
        0,
        0,
        0,
        0,
        0,
        0,
        0,
        0,
        0
      ],
      "parameters": {
        "fuzz": "4",
        "impl": "Store"
      }
    },
    {
      "command": "Vector",
      "mean": 0.09851086823333337,
      "stddev": 0.00004632215162795958,
      "median": 0.0985015295,
      "user": 0.09740182,
      "system": 0.0010739153333333335,
      "min": 0.09845326250000001,
      "max": 0.09868130650000001,
      "times": [
        0.09855084750000001,
        0.0984821775,
        0.09848790750000001,
        0.09846813950000001,
        0.09851161250000001,
        0.0984591025,
        0.09845326250000001,
        0.09851351550000001,
        0.09849811750000001,
        0.0984909535,
        0.0985036385,
        0.09847811950000002,
        0.09851129250000001,
        0.09847539350000001,
        0.0984994205,
        0.09849800650000001,
        0.09851590150000002,
        0.0985474315,
        0.0984829385,
        0.09846350150000001,
        0.09848350850000001,
        0.09858193650000001,
        0.09868130650000001,
        0.09846044550000001,
        0.09852730350000001,
        0.09853363450000001,
        0.0985625405,
        0.09850625250000002,
        0.09855416450000001,
        0.09854367450000001
      ],
      "exit_codes": [
        0,
        0,
        0,
        0,
        0,
        0,
        0,
        0,
        0,
        0,
        0,
        0,
        0,
        0,
        0,
        0,
        0,
        0,
        0,
        0,
        0,
        0,
        0,
        0,
        0,
        0,
        0,
        0,
        0,
        0
      ],
      "parameters": {
        "fuzz": "4",
        "impl": "Vector"
      }
    },
    {
      "command": "Map",
      "mean": 1.6938840158000001,
      "stddev": 0.0035188497669644907,
      "median": 1.6924607704999999,
      "user": 1.6797976199999998,
      "system": 0.013308940000000002,
      "min": 1.6899127944999999,
      "max": 1.7011539095000001,
      "times": [
        1.7011539095000001,
        1.6922481544999999,
        1.6983922464999999,
        1.6899127944999999,
        1.6914536765,
        1.6925021435,
        1.6961035065,
        1.6924193975,
        1.6925316835000002,
        1.6921226455
      ],
      "exit_codes": [
        0,
        0,
        0,
        0,
        0,
        0,
        0,
        0,
        0,
        0
      ],
      "parameters": {
        "fuzz": "4",
        "impl": "Map"
      }
    },
    {
      "command": "Store",
      "mean": 0.19649586003333336,
      "stddev": 0.0010988754609368274,
      "median": 0.1965127985,
      "user": 0.17626758666666667,
      "system": 0.01999987333333333,
      "min": 0.1945814935,
      "max": 0.1982657345,
      "times": [
        0.1973969905,
        0.1982585995,
        0.19655211350000001,
        0.1982657345,
        0.1946970925,
        0.1967202635,
        0.1960656475,
        0.1961583235,
        0.1973386205,
        0.1958192385,
        0.1958219135,
        0.1973119485,
        0.1959371225,
        0.1965127985,
        0.1945814935
      ],
      "exit_codes": [
        0,
        0,
        0,
        0,
        0,
        0,
        0,
        0,
        0,
        0,
        0,
        0,
        0,
        0,
        0
      ],
      "parameters": {
        "fuzz": "5",
        "impl": "Store"
      }
    },
    {
      "command": "Vector",
      "mean": 0.11217002850000003,
      "stddev": 0.00013056547076375106,
      "median": 0.112130819,
      "user": 0.11089145846153846,
      "system": 0.0012399815384615382,
      "min": 0.11210040050000002,
      "max": 0.11273119050000001,
      "times": [
        0.1121608265,
        0.11228713650000001,
        0.11273119050000001,
        0.1121314295,
        0.11210847650000001,
        0.1121090975,
        0.11217054450000001,
        0.1121880075,
        0.11213020850000001,
        0.11211025050000001,
        0.11212618950000001,
        0.1123902625,
        0.11214294250000001,
        0.11210294550000001,
        0.11215688850000001,
        0.11211391750000001,
        0.11210040050000002,
        0.1121609065,
        0.11210945850000001,
        0.1121570295,
        0.1121460375,
        0.1121006315,
        0.11210569050000001,
        0.1121338545,
        0.11212744150000001,
        0.11211897650000001
      ],
      "exit_codes": [
        0,
        0,
        0,
        0,
        0,
        0,
        0,
        0,
        0,
        0,
        0,
        0,
        0,
        0,
        0,
        0,
        0,
        0,
        0,
        0,
        0,
        0,
        0,
        0,
        0,
        0
      ],
      "parameters": {
        "fuzz": "5",
        "impl": "Vector"
      }
    },
    {
      "command": "Map",
      "mean": 1.6210972209,
      "stddev": 0.0029573857855839515,
      "median": 1.6204479170000001,
      "user": 1.60704162,
      "system": 0.01330934,
      "min": 1.6164046395,
      "max": 1.6271792455,
      "times": [
        1.6164046395,
        1.6232305185,
        1.6193476315,
        1.6206635465,
        1.6271792455,
        1.6202322875000001,
        1.6231453814999999,
        1.6198286015,
        1.6219809575000002,
        1.6189593995
      ],
      "exit_codes": [
        0,
        0,
        0,
        0,
        0,
        0,
        0,
        0,
        0,
        0
      ],
      "parameters": {
        "fuzz": "5",
        "impl": "Map"
      }
    },
    {
      "command": "Store",
      "mean": 0.2008816938571428,
      "stddev": 0.0006546366024299417,
      "median": 0.20079301100000002,
      "user": 0.17989684857142854,
      "system": 0.020665297142857142,
      "min": 0.2000387605,
      "max": 0.2022664395,
      "times": [
        0.2012817155,
        0.2017556275,
        0.2005312075,
        0.2008899905,
        0.2001618545,
        0.2005631885,
        0.2006960315,
        0.2015624995,
        0.2000654325,
        0.2010247365,
        0.20092487650000002,
        0.2022664395,
        0.2000387605,
        0.2005813535
      ],
      "exit_codes": [
        0,
        0,
        0,
        0,
        0,
        0,
        0,
        0,
        0,
        0,
        0,
        0,
        0,
        0
      ],
      "parameters": {
        "fuzz": "6",
        "impl": "Store"
      }
    },
    {
      "command": "Vector",
      "mean": 0.09853757833333336,
      "stddev": 0.00008520940686619364,
      "median": 0.09851936600000001,
      "user": 0.09744172000000001,
      "system": 0.0010632173333333334,
      "min": 0.09846431650000001,
      "max": 0.09890992350000001,
      "times": [
        0.09852595350000001,
        0.09867711150000001,
        0.09848729950000001,
        0.09852010250000001,
        0.09849827050000001,
        0.09855287450000001,
        0.09854085250000001,
        0.0985001535,
        0.09852914850000001,
        0.0985762995,
        0.09846431650000001,
        0.09848756050000002,
        0.0984938025,
        0.09847322250000001,
        0.09846578950000001,
        0.0984722625,
        0.09850528350000001,
        0.09852848850000001,
        0.09858868250000001,
        0.09849589650000001,
        0.0984828325,
        0.0985613005,
        0.09848526750000001,
        0.09862503150000002,
        0.09851862950000001,
        0.09854760450000001,
        0.09856906650000001,
        0.09890992350000001,
        0.0985258135,
        0.0985185095
      ],
      "exit_codes": [
        0,
        0,
        0,
        0,
        0,
        0,
        0,
        0,
        0,
        0,
        0,
        0,
        0,
        0,
        0,
        0,
        0,
        0,
        0,
        0,
        0,
        0,
        0,
        0,
        0,
        0,
        0,
        0,
        0,
        0
      ],
      "parameters": {
        "fuzz": "6",
        "impl": "Vector"
      }
    },
    {
      "command": "Map",
      "mean": 1.7151784838000002,
      "stddev": 0.002755329472090205,
      "median": 1.7156082879999999,
      "user": 1.6995746199999995,
      "system": 0.014842039999999997,
      "min": 1.7113386945,
      "max": 1.7193859995,
      "times": [
        1.7113386945,
        1.7154919284999999,
        1.7193859995,
        1.7118974005,
        1.7160462875,
        1.7133861965,
        1.7127417515,
        1.7157246475,
        1.7176090335,
        1.7181628985
      ],
      "exit_codes": [
        0,
        0,
        0,
        0,
        0,
        0,
        0,
        0,
        0,
        0
      ],
      "parameters": {
        "fuzz": "6",
        "impl": "Map"
      }
    },
    {
      "command": "Store",
      "mean": 0.19619042030000003,
      "stddev": 0.0016572453536345094,
      "median": 0.1959456245,
      "user": 0.17501892,
      "system": 0.02095634,
      "min": 0.1940319235,
      "max": 0.2007728105,
      "times": [
        0.1979085605,
        0.1959131945,
        0.1944899055,
        0.1951151045,
        0.1956740085,
        0.1960702215,
        0.1948363345,
        0.1949836245,
        0.1940319235,
        0.2007728105,
        0.1972119555,
        0.1960944575,
        0.1959456245,
        0.1968229645,
        0.1969856145
      ],
      "exit_codes": [
        0,
        0,
        0,
        0,
        0,
        0,
        0,
        0,
        0,
        0,
        0,
        0,
        0,
        0,
        0
      ],
      "parameters": {
        "fuzz": "7",
        "impl": "Store"
      }
    },
    {
      "command": "Vector",
      "mean": 0.11213198396153848,
      "stddev": 0.0000472347785490564,
      "median": 0.11212695550000001,
      "user": 0.11068622769230772,
      "system": 0.0014073276923076922,
      "min": 0.11205828550000001,
      "max": 0.1122865085,
      "times": [
        0.1121522835,
        0.1120787735,
        0.11215002850000001,
        0.11208503550000001,
        0.11218316250000002,
        0.11218072750000001,
        0.11214445850000002,
        0.11213577150000001,
        0.11218432450000002,
        0.11214095150000002,
        0.11207968450000001,
        0.11210499350000001,
        0.1121658085,
        0.1121314035,
        0.11214902750000001,
        0.11208756050000002,
        0.11205828550000001,
        0.11210175750000001,
        0.11211379950000001,
        0.11211586350000001,
        0.11210988250000001,
        0.11208571650000002,
        0.1122865085,
        0.11211490250000002,
        0.11212250750000001,
        0.1121683645
      ],
      "exit_codes": [
        0,
        0,
        0,
        0,
        0,
        0,
        0,
        0,
        0,
        0,
        0,
        0,
        0,
        0,
        0,
        0,
        0,
        0,
        0,
        0,
        0,
        0,
        0,
        0,
        0,
        0
      ],
      "parameters": {
        "fuzz": "7",
        "impl": "Vector"
      }
    },
    {
      "command": "Map",
      "mean": 1.7747310548999997,
      "stddev": 0.008015210743022829,
      "median": 1.772677195,
      "user": 1.76237012,
      "system": 0.011580146,
      "min": 1.7604241105,
      "max": 1.7868806585,
      "times": [
        1.7719349735,
        1.7852413645,
        1.7715372995,
        1.7709349045,
        1.7686110824999999,
        1.7776583595,
        1.7868806585,
        1.7806683795,
        1.7734194165000001,
        1.7604241105
      ],
      "exit_codes": [
        0,
        0,
        0,
        0,
        0,
        0,
        0,
        0,
        0,
        0
      ],
      "parameters": {
        "fuzz": "7",
        "impl": "Map"
      }
    },
    {
      "command": "Store",
      "mean": 0.20119750628571428,
      "stddev": 0.0004736050828229371,
      "median": 0.201079146,
      "user": 0.18173534857142856,
      "system": 0.019178297142857143,
      "min": 0.2006112355,
      "max": 0.2023048685,
      "times": [
        0.2008002555,
        0.2017311865,
        0.2010288205,
        0.2019290035,
        0.2011740665,
        0.2023048685,
        0.2009150835,
        0.2011294715,
        0.2012224495,
        0.2006112355,
        0.2009456415,
        0.2009548595,
        0.2011835755,
        0.2008345705
      ],
      "exit_codes": [
        0,
        0,
        0,
        0,
        0,
        0,
        0,
        0,
        0,
        0,
        0,
        0,
        0,
        0
      ],
      "parameters": {
        "fuzz": "8",
        "impl": "Store"
      }
    },
    {
      "command": "Vector",
      "mean": 0.09853626243333333,
      "stddev": 0.00006558559037909747,
      "median": 0.09851046200000001,
      "user": 0.09662941999999998,
      "system": 0.0018705093333333334,
      "min": 0.09847425850000001,
      "max": 0.0987376595,
      "times": [
        0.09856088250000002,
        0.09848975750000001,
        0.09851275150000001,
        0.09851386250000001,
        0.0984956485,
        0.09848302450000002,
        0.09854175650000001,
        0.09856758650000001,
        0.0985549415,
        0.0984875035,
        0.09847788550000001,
        0.0985081725,
        0.09855622450000001,
        0.09847425850000001,
        0.0985508835,
        0.09848974750000002,
        0.09850314350000001,
        0.09849402550000001,
        0.09869827450000002,
        0.09848313550000001,
        0.0987376595,
        0.09853813950000001,
        0.09849563950000001,
        0.0985522065,
        0.09848935650000001,
        0.0984999765,
        0.0984893765,
        0.09865551350000001,
        0.0985706315,
        0.09861590750000002
      ],
      "exit_codes": [
        0,
        0,
        0,
        0,
        0,
        0,
        0,
        0,
        0,
        0,
        0,
        0,
        0,
        0,
        0,
        0,
        0,
        0,
        0,
        0,
        0,
        0,
        0,
        0,
        0,
        0,
        0,
        0,
        0,
        0
      ],
      "parameters": {
        "fuzz": "8",
        "impl": "Vector"
      }
    },
    {
      "command": "Map",
      "mean": 1.7609841430000004,
      "stddev": 0.0036096094679394742,
      "median": 1.7607536405,
      "user": 1.74538022,
      "system": 0.014846139999999999,
      "min": 1.7563569915,
      "max": 1.7658839965000002,
      "times": [
        1.7573096985,
        1.7571419115,
        1.7658839965000002,
        1.7610597374999999,
        1.7604475435,
        1.7631189475,
        1.7563569915,
        1.7584987275,
        1.7647822155000001,
        1.7652416605
      ],
      "exit_codes": [
        0,
        0,
        0,
        0,
        0,
        0,
        0,
        0,
        0,
        0
      ],
      "parameters": {
        "fuzz": "8",
        "impl": "Map"
      }
    },
    {
      "command": "Store",
      "mean": 0.20187510492857139,
      "stddev": 0.0007868935511103309,
      "median": 0.201898678,
      "user": 0.18014427714285713,
      "system": 0.021488797142857147,
      "min": 0.20073546450000002,
      "max": 0.2034321265,
      "times": [
        0.2018868355,
        0.2022803345,
        0.2020887105,
        0.2032420345,
        0.2007962705,
        0.20073546450000002,
        0.2015776475,
        0.2016284645,
        0.2020538335,
        0.2034321265,
        0.2009785175,
        0.2016061215,
        0.2020345875,
        0.2019105205
      ],
      "exit_codes": [
        0,
        0,
        0,
        0,
        0,
        0,
        0,
        0,
        0,
        0,
        0,
        0,
        0,
        0
      ],
      "parameters": {
        "fuzz": "9",
        "impl": "Store"
      }
    },
    {
      "command": "Vector",
      "mean": 0.11258410984615387,
      "stddev": 0.00009637251135503109,
      "median": 0.11257673950000001,
      "user": 0.11190507384615384,
      "system": 0.0006431423076923077,
      "min": 0.1124710725,
      "max": 0.11286390050000002,
      "times": [
        0.1125664645,
        0.1125398045,
        0.11257755550000001,
        0.11264939150000002,
        0.11286390050000002,
        0.11258189350000002,
        0.11259866550000001,
        0.11253151850000001,
        0.11249177250000002,
        0.11258875650000001,
        0.11249576050000001,
        0.1124710725,
        0.11253802150000002,
        0.11247935850000002,
        0.11270246350000002,
        0.11260276450000001,
        0.11251530750000001,
        0.11250520850000001,
        0.1126115205,
        0.11277908950000001,
        0.11259582150000001,
        0.11248162350000002,
        0.1125086155,
        0.11272970450000001,
        0.11257592350000001,
        0.1126048775
      ],
      "exit_codes": [
        0,
        0,
        0,
        0,
        0,
        0,
        0,
        0,
        0,
        0,
        0,
        0,
        0,
        0,
        0,
        0,
        0,
        0,
        0,
        0,
        0,
        0,
        0,
        0,
        0,
        0
      ],
      "parameters": {
        "fuzz": "9",
        "impl": "Vector"
      }
    },
    {
      "command": "Map",
      "mean": 1.7053809699999998,
      "stddev": 0.011476452108568954,
      "median": 1.6998478745,
      "user": 1.68943622,
      "system": 0.01518264,
      "min": 1.6936153145,
      "max": 1.7276361405,
      "times": [
        1.7148022265,
        1.7023942365,
        1.6978675845000002,
        1.7002563205,
        1.7276361405,
        1.6936153145,
        1.6994394285,
        1.7208485574999999,
        1.6976597334999999,
        1.6992901575
      ],
      "exit_codes": [
        0,
        0,
        0,
        0,
        0,
        0,
        0,
        0,
        0,
        0
      ],
      "parameters": {
        "fuzz": "9",
        "impl": "Map"
      }
    },
    {
      "command": "Store",
      "mean": 0.20152254564285713,
      "stddev": 0.0011450029322569704,
      "median": 0.2009482775,
      "user": 0.17847856285714284,
      "system": 0.022818082857142853,
      "min": 0.2002710035,
      "max": 0.2037081835,
      "times": [
        0.2024455915,
        0.2007397755,
        0.20056150550000001,
        0.2021957155,
        0.20293917050000002,
        0.2002710035,
        0.20065932250000001,
        0.2010666275,
        0.2008299275,
        0.2025173885,
        0.2004807325,
        0.2037081835,
        0.20253050250000001,
        0.2003701925
      ],
      "exit_codes": [
        0,
        0,
        0,
        0,
        0,
        0,
        0,
        0,
        0,
        0,
        0,
        0,
        0,
        0
      ],
      "parameters": {
        "fuzz": "10",
        "impl": "Store"
      }
    },
    {
      "command": "Vector",
      "mean": 0.09880083196666666,
      "stddev": 0.0007084784592195101,
      "median": 0.09853166500000002,
      "user": 0.09664675333333332,
      "system": 0.002116907333333333,
      "min": 0.09844981450000001,
      "max": 0.1014209575,
      "times": [
        0.0985368595,
        0.09850653150000001,
        0.0984968325,
        0.0991151395,
        0.09857520350000001,
        0.1014209575,
        0.09847366950000001,
        0.09850758450000001,
        0.0984818345,
        0.09848617350000001,
        0.0985047485,
        0.0984616665,
        0.0986852225,
        0.09844981450000001,
        0.0987933985,
        0.09889389850000001,
        0.09958772850000001,
        0.10108575950000001,
        0.09852707150000001,
        0.0984830475,
        0.09874497550000001,
        0.09852978650000001,
        0.0985472495,
        0.09853087850000002,
        0.0988039175,
        0.0985324515,
        0.09849582150000001,
        0.09848978950000001,
        0.09869643450000001,
        0.09858051250000001
      ],
      "exit_codes": [
        0,
        0,
        0,
        0,
        0,
        0,
        0,
        0,
        0,
        0,
        0,
        0,
        0,
        0,
        0,
        0,
        0,
        0,
        0,
        0,
        0,
        0,
        0,
        0,
        0,
        0,
        0,
        0,
        0,
        0
      ],
      "parameters": {
        "fuzz": "10",
        "impl": "Vector"
      }
    },
    {
      "command": "Map",
      "mean": 1.7088696680000002,
      "stddev": 0.010221459350922224,
      "median": 1.7088825884999999,
      "user": 1.6929225199999998,
      "system": 0.01517464,
      "min": 1.6958961835000002,
      "max": 1.7269940504999999,
      "times": [
        1.6998357675,
        1.7095382405,
        1.7082269365,
        1.6958961835000002,
        1.7041920195,
        1.7096836005,
        1.7132904745000002,
        1.7269940504999999,
        1.7230396165000001,
        1.6979997905000002
      ],
      "exit_codes": [
        0,
        0,
        0,
        0,
        0,
        0,
        0,
        0,
        0,
        0
      ],
      "parameters": {
        "fuzz": "10",
        "impl": "Map"
      }
    },
    {
      "command": "Store",
      "mean": 0.2016059538571429,
      "stddev": 0.000646842083371873,
      "median": 0.201469116,
      "user": 0.1803022057142857,
      "system": 0.021012582857142855,
      "min": 0.2010332455,
      "max": 0.2031613855,
      "times": [
        0.2017046045,
        0.2010523425,
        0.2012666895,
        0.2012281275,
        0.2011206525,
        0.2015785035,
        0.2010332455,
        0.2014464825,
        0.2029100775,
        0.2031613855,
        0.2014917495,
        0.2012301615,
        0.2016300315,
        0.2016293005
      ],
      "exit_codes": [
        0,
        0,
        0,
        0,
        0,
        0,
        0,
        0,
        0,
        0,
        0,
        0,
        0,
        0
      ],
      "parameters": {
        "fuzz": "11",
        "impl": "Store"
      }
    },
    {
      "command": "Vector",
      "mean": 0.11264494680769231,
      "stddev": 0.00037556308169433026,
      "median": 0.11255047100000001,
      "user": 0.1116729969230769,
      "system": 0.0009352530769230768,
      "min": 0.11250466950000002,
      "max": 0.11444753550000002,
      "times": [
        0.11444753550000002,
        0.1125631415,
        0.11256597650000001,
        0.11250999950000001,
        0.11256289050000001,
        0.11251953850000002,
        0.11250466950000002,
        0.11262419650000001,
        0.1126467995,
        0.11265147950000001,
        0.11251487850000001,
        0.1125160815,
        0.11252788350000001,
        0.11251286550000002,
        0.11257517450000001,
        0.11258399050000001,
        0.1128277245,
        0.11276335150000001,
        0.11255716950000001,
        0.11253361550000002,
        0.11254063750000001,
        0.1125403075,
        0.11253064850000001,
        0.1125528305,
        0.1125481115,
        0.11254711950000001
      ],
      "exit_codes": [
        0,
        0,
        0,
        0,
        0,
        0,
        0,
        0,
        0,
        0,
        0,
        0,
        0,
        0,
        0,
        0,
        0,
        0,
        0,
        0,
        0,
        0,
        0,
        0,
        0,
        0
      ],
      "parameters": {
        "fuzz": "11",
        "impl": "Vector"
      }
    },
    {
      "command": "Map",
      "mean": 1.7562633672,
      "stddev": 0.01077736740997715,
      "median": 1.7520467675,
      "user": 1.73792862,
      "system": 0.017586139999999997,
      "min": 1.7444162075,
      "max": 1.7745383065,
      "times": [
        1.7472825795,
        1.7710038184999999,
        1.7532694025000002,
        1.7745383065,
        1.7444162075,
        1.7508241325,
        1.7656178345,
        1.7596282564999999,
        1.7481557775,
        1.7478973565
      ],
      "exit_codes": [
        0,
        0,
        0,
        0,
        0,
        0,
        0,
        0,
        0,
        0
      ],
      "parameters": {
        "fuzz": "11",
        "impl": "Map"
      }
    },
    {
      "command": "Store",
      "mean": 0.2031141337142857,
      "stddev": 0.0009747934093660911,
      "median": 0.203096449,
      "user": 0.18216156285714288,
      "system": 0.020696797142857142,
      "min": 0.2012186715,
      "max": 0.2048231005,
      "times": [
        0.2033834905,
        0.2040673815,
        0.2039101225,
        0.2025079045,
        0.2031035675,
        0.2029689415,
        0.2012186715,
        0.2020092955,
        0.20255006450000002,
        0.2033071955,
        0.2030893305,
        0.2048231005,
        0.2043702185,
        0.2022885875
      ],
      "exit_codes": [
        0,
        0,
        0,
        0,
        0,
        0,
        0,
        0,
        0,
        0,
        0,
        0,
        0,
        0
      ],
      "parameters": {
        "fuzz": "12",
        "impl": "Store"
      }
    },
    {
      "command": "Vector",
      "mean": 0.09849534486666668,
      "stddev": 0.00010449268466277152,
      "median": 0.09847296050000001,
      "user": 0.09727535333333331,
      "system": 0.0011884173333333334,
      "min": 0.09842459750000002,
      "max": 0.09902389850000001,
      "times": [
        0.09848287850000001,
        0.09852622150000001,
        0.09851342650000001,
        0.09845935450000001,
        0.09852912750000001,
        0.09844537750000001,
        0.0984471105,
        0.09848262850000002,
        0.09850831750000001,
        0.0984787515,
        0.09902389850000001,
        0.09846130850000001,
        0.0984868165,
        0.09846156850000001,
        0.09846067750000001,
        0.09845078750000001,
        0.09845337350000001,
        0.09856305250000001,
        0.09847831050000001,
        0.09844894550000001,
        0.09849093550000002,
        0.09852257450000002,
        0.09846761050000001,
        0.09844689050000001,
        0.09846083650000001,
        0.09849289850000001,
        0.09844915450000001,
        0.09842459750000002,
        0.09845983550000001,
        0.09848307950000001
      ],
      "exit_codes": [
        0,
        0,
        0,
        0,
        0,
        0,
        0,
        0,
        0,
        0,
        0,
        0,
        0,
        0,
        0,
        0,
        0,
        0,
        0,
        0,
        0,
        0,
        0,
        0,
        0,
        0,
        0,
        0,
        0,
        0
      ],
      "parameters": {
        "fuzz": "12",
        "impl": "Vector"
      }
    },
    {
      "command": "Map",
      "mean": 1.7130462736000003,
      "stddev": 0.004628017850938536,
      "median": 1.7122614845,
      "user": 1.70309472,
      "system": 0.009195546,
      "min": 1.7075587315,
      "max": 1.7225856575,
      "times": [
        1.7113283605,
        1.7082105994999999,
        1.7156078645000001,
        1.7122547555,
        1.7170999465,
        1.7147623885,
        1.7122682135,
        1.7075587315,
        1.7087862185,
        1.7225856575
      ],
      "exit_codes": [
        0,
        0,
        0,
        0,
        0,
        0,
        0,
        0,
        0,
        0
      ],
      "parameters": {
        "fuzz": "12",
        "impl": "Map"
      }
    },
    {
      "command": "Store",
      "mean": 0.2019824022142857,
      "stddev": 0.0006676361850883287,
      "median": 0.201885597,
      "user": 0.17796849142857143,
      "system": 0.023773225714285712,
      "min": 0.2006073095,
      "max": 0.2032282275,
      "times": [
        0.2020091275,
        0.2006073095,
        0.20255670950000002,
        0.20173378250000001,
        0.2016237445,
        0.2018174525,
        0.2015281625,
        0.2021383435,
        0.2016716745,
        0.20153340250000001,
        0.2019537415,
        0.2030707675,
        0.20228118550000002,
        0.2032282275
      ],
      "exit_codes": [
        0,
        0,
        0,
        0,
        0,
        0,
        0,
        0,
        0,
        0,
        0,
        0,
        0,
        0
      ],
      "parameters": {
        "fuzz": "13",
        "impl": "Store"
      }
    },
    {
      "command": "Vector",
      "mean": 0.11254182665384617,
      "stddev": 0.000044376364222133055,
      "median": 0.11253546050000002,
      "user": 0.11096926615384615,
      "system": 0.0015356307692307692,
      "min": 0.11245575850000002,
      "max": 0.11264715250000001,
      "times": [
        0.1125509595,
        0.1125145505,
        0.11258655750000002,
        0.11253447850000001,
        0.11251841750000001,
        0.11250762750000001,
        0.11245575850000002,
        0.11253202350000001,
        0.1125135185,
        0.11254133150000001,
        0.11255545750000001,
        0.11254179250000002,
        0.11262969950000001,
        0.11261045350000001,
        0.11254743350000002,
        0.11248998350000002,
        0.11259803950000001,
        0.11253018050000001,
        0.1125160535,
        0.11264715250000001,
        0.11249324950000002,
        0.11252813650000001,
        0.11253644250000001,
        0.11253962950000002,
        0.11257454450000001,
        0.11249402150000001
      ],
      "exit_codes": [
        0,
        0,
        0,
        0,
        0,
        0,
        0,
        0,
        0,
        0,
        0,
        0,
        0,
        0,
        0,
        0,
        0,
        0,
        0,
        0,
        0,
        0,
        0,
        0,
        0,
        0
      ],
      "parameters": {
        "fuzz": "13",
        "impl": "Vector"
      }
    },
    {
      "command": "Map",
      "mean": 1.6699506585,
      "stddev": 0.007618125767842685,
      "median": 1.669710399,
      "user": 1.6568037199999999,
      "system": 0.01237674,
      "min": 1.6588215235000001,
      "max": 1.6868163135,
      "times": [
        1.6702287885,
        1.6868163135,
        1.6685394755,
        1.6685677195000002,
        1.6588215235000001,
        1.6706574265,
        1.6748306185,
        1.6710622175,
        1.6691920095,
        1.6607904925
      ],
      "exit_codes": [
        0,
        0,
        0,
        0,
        0,
        0,
        0,
        0,
        0,
        0
      ],
      "parameters": {
        "fuzz": "13",
        "impl": "Map"
      }
    },
    {
      "command": "Store",
      "mean": 0.20289877971428574,
      "stddev": 0.0005422878425964122,
      "median": 0.2027882915,
      "user": 0.17718777714285716,
      "system": 0.02548336857142857,
      "min": 0.2024363315,
      "max": 0.2044084645,
      "times": [
        0.2029073775,
        0.2024363315,
        0.2025630735,
        0.2024660985,
        0.2036928535,
        0.20277939450000002,
        0.2026733325,
        0.2024516815,
        0.20285749250000001,
        0.2028995835,
        0.2025888425,
        0.2044084645,
        0.2027971885,
        0.2030612015
      ],
      "exit_codes": [
        0,
        0,
        0,
        0,
        0,
        0,
        0,
        0,
        0,
        0,
        0,
        0,
        0,
        0
      ],
      "parameters": {
        "fuzz": "14",
        "impl": "Store"
      }
    },
    {
      "command": "Vector",
      "mean": 0.09849706233333337,
      "stddev": 0.00005147073044113298,
      "median": 0.0984815235,
      "user": 0.09700365333333333,
      "system": 0.0014596113333333334,
      "min": 0.0984533855,
      "max": 0.09867433550000002,
      "times": [
        0.09856549850000002,
        0.0984708685,
        0.09848322150000001,
        0.0984533855,
        0.0984934605,
        0.09848426350000002,
        0.0984810175,
        0.09849449350000002,
        0.09849135750000002,
        0.09846502650000001,
        0.09846296350000001,
        0.0985488265,
        0.09848202950000001,
        0.09846351450000002,
        0.09849644650000002,
        0.09846139050000001,
        0.09845911550000001,
        0.09848513550000002,
        0.0984662995,
        0.09867433550000002,
        0.09862785650000001,
        0.0984753765,
        0.09845649050000001,
        0.09847876250000001,
        0.0984686235,
        0.09853055250000001,
        0.09845520850000002,
        0.09855910650000001,
        0.09847847250000001,
        0.09849877050000001
      ],
      "exit_codes": [
        0,
        0,
        0,
        0,
        0,
        0,
        0,
        0,
        0,
        0,
        0,
        0,
        0,
        0,
        0,
        0,
        0,
        0,
        0,
        0,
        0,
        0,
        0,
        0,
        0,
        0,
        0,
        0,
        0,
        0
      ],
      "parameters": {
        "fuzz": "14",
        "impl": "Vector"
      }
    },
    {
      "command": "Map",
      "mean": 1.6833587059000004,
      "stddev": 0.0074365688657068545,
      "median": 1.68359647,
      "user": 1.6687589199999997,
      "system": 0.013833340000000003,
      "min": 1.6709753675,
      "max": 1.6958080575,
      "times": [
        1.6842719845,
        1.6768005675000002,
        1.6864741055,
        1.6918928785,
        1.6829209555,
        1.6958080575,
        1.6760676665,
        1.6821526655,
        1.6862228105000001,
        1.6709753675
      ],
      "exit_codes": [
        0,
        0,
        0,
        0,
        0,
        0,
        0,
        0,
        0,
        0
      ],
      "parameters": {
        "fuzz": "14",
        "impl": "Map"
      }
    },
    {
      "command": "Store",
      "mean": 0.2018105394285714,
      "stddev": 0.0008627087884304578,
      "median": 0.20172517550000002,
      "user": 0.17959106285714285,
      "system": 0.021975011428571438,
      "min": 0.2005145265,
      "max": 0.2038079525,
      "times": [
        0.2038079525,
        0.2012931175,
        0.2015836315,
        0.2012848915,
        0.2024419845,
        0.2018667195,
        0.2009578195,
        0.2027729135,
        0.20223989950000001,
        0.2023690145,
        0.2010924855,
        0.2012301075,
        0.2018924885,
        0.2005145265
      ],
      "exit_codes": [
        0,
        0,
        0,
        0,
        0,
        0,
        0,
        0,
        0,
        0,
        0,
        0,
        0,
        0
      ],
      "parameters": {
        "fuzz": "15",
        "impl": "Store"
      }
    },
    {
      "command": "Vector",
      "mean": 0.11259577884615382,
      "stddev": 0.00009717905080620726,
      "median": 0.112563485,
      "user": 0.11012638153846153,
      "system": 0.0024298953846153847,
      "min": 0.11250477350000002,
      "max": 0.11294973050000001,
      "times": [
        0.11266748350000001,
        0.1125665705,
        0.11254740450000002,
        0.11250477350000002,
        0.11253235550000001,
        0.11262638550000001,
        0.1125248325,
        0.11257056950000001,
        0.1126345905,
        0.11294973050000001,
        0.1125261245,
        0.1126382075,
        0.11271734850000001,
        0.11251097550000001,
        0.11259677950000001,
        0.1125603995,
        0.11263064350000002,
        0.11277087050000001,
        0.1125224065,
        0.11253436950000001,
        0.11252702650000002,
        0.1125470345,
        0.1125522245,
        0.11258468550000002,
        0.11255066150000001,
        0.11259579650000001
      ],
      "exit_codes": [
        0,
        0,
        0,
        0,
        0,
        0,
        0,
        0,
        0,
        0,
        0,
        0,
        0,
        0,
        0,
        0,
        0,
        0,
        0,
        0,
        0,
        0,
        0,
        0,
        0,
        0
      ],
      "parameters": {
        "fuzz": "15",
        "impl": "Vector"
      }
    },
    {
      "command": "Map",
      "mean": 1.7295446480999999,
      "stddev": 0.0030657122062817464,
      "median": 1.7300485975,
      "user": 1.71473342,
      "system": 0.013972539999999997,
      "min": 1.7242943595,
      "max": 1.7333009945000002,
      "times": [
        1.7307357925,
        1.7253541925,
        1.7333009945000002,
        1.7290166725,
        1.7326527725,
        1.7295429755,
        1.7305542194999999,
        1.7325037205,
        1.7274907815,
        1.7242943595
      ],
      "exit_codes": [
        0,
        0,
        0,
        0,
        0,
        0,
        0,
        0,
        0,
        0
      ],
      "parameters": {
        "fuzz": "15",
        "impl": "Map"
      }
    }
  ]
}
